<?xml version="1.0" encoding="utf-8"?>
<!DOCTYPE svg PUBLIC "-//W3C//DTD SVG 1.1//EN" "http://www.w3.org/Graphics/SVG/1.1/DTD/svg11.dtd">
<svg version="1.1" xmlns="http://www.w3.org/2000/svg" xmlns:xlink="http://www.w3.org/1999/xlink" x="0px" y="0px" width="291px" height="81.5px" viewBox="0 0 291 81.5" enable-background="new 0 0 291 81.5" xml:space="preserve">
    <g id="Icon">
        <polygon fill="none" stroke="#FFFFFF" stroke-width="4.3" stroke-miterlimit="10" points="53.077,67.057 15.905,74.557 7.588,32.268 24.5,17.833 44.76,24.767"/>
        <rect x="29.721" y="56.479" transform="matrix(0.9818 -0.1899 0.1899 0.9818 -11.4747 7.5636)" fill="#FFFFFF" width="8" height="14.331"/>
        <circle fill="#FFFFFF" cx="26.688" cy="29.688" r="3.062"/>
        <path fill="none" stroke="#FFFFFF" stroke-width="3" stroke-miterlimit="10" d="M27.25,28.375 c-0.191-1.618,1.566-3.191,2.034-4.729c0.809-2.66,0.893-5.613,0.369-8.321c-0.761-3.935-1.845-9.197-0.403-13.075"/>
    </g>
    <g id="ZenEstate_Text">
        <text transform="matrix(1.0391 0 0 1 66.0444 58.6562)" fill="#FFFFFF" font-family="'Helvetica-Bold'" font-size="47.154" letter-spacing="-0.962">ZenEstate</text>
    </g>
</svg>